<?xml version="1.0" encoding="iso-8859-1"?>
<!-- Generator: Adobe Illustrator 18.0.0, SVG Export Plug-In . SVG Version: 6.00 Build 0)  -->
<!DOCTYPE svg PUBLIC "-//W3C//DTD SVG 1.1//EN" "http://www.w3.org/Graphics/SVG/1.1/DTD/svg11.dtd">
<svg version="1.1" id="Capa_1" xmlns="http://www.w3.org/2000/svg" xmlns:xlink="http://www.w3.org/1999/xlink" x="0px" y="0px"
	 viewBox="0 0 53.516 53.516" style="enable-background:new 0 0 53.516 53.516;" xml:space="preserve">
<path d="M52.638,15.594L37.923,0.879C37.36,0.316,36.598,0,35.802,0c-0.795,0-1.559,0.316-2.121,0.879L28.469,6.09l-5.365,5.365
	L11.455,23.105L6.09,28.469l-5.211,5.211C0.316,34.243,0,35.006,0,35.802c0,0.796,0.316,1.559,0.879,2.122l14.715,14.714
	c0.585,0.585,1.354,0.878,2.121,0.878s1.536-0.293,2.122-0.879c1.171-1.171,1.171-3.071,0-4.243l-6.769-6.769l0.969-0.969
	l6.769,6.769c0.585,0.585,1.354,0.878,2.121,0.878s1.536-0.293,2.122-0.879c1.171-1.171,1.171-3.071,0-4.243l-6.769-6.769
	l1.122-1.122l6.769,6.769c0.585,0.585,1.354,0.878,2.121,0.878s1.536-0.293,2.122-0.879c1.171-1.171,1.171-3.071,0-4.243
	l-6.769-6.769l1.582-1.582l6.769,6.769c0.585,0.586,1.354,0.879,2.121,0.879s1.536-0.293,2.121-0.879
	c1.172-1.171,1.172-3.071,0-4.242l-6.769-6.769l1.582-1.582l6.769,6.769c1.171,1.171,3.071,1.172,4.243,0
	c1.172-1.172,1.172-3.071,0-4.243l-6.769-6.769l1.122-1.122l6.769,6.769c1.171,1.171,3.071,1.172,4.243,0
	c1.172-1.172,1.172-3.071,0-4.243l-6.769-6.769l0.969-0.969l6.769,6.769c1.171,1.171,3.071,1.172,4.243,0
	C53.809,18.665,53.809,16.765,52.638,15.594z"/>
<g>
</g>
<g>
</g>
<g>
</g>
<g>
</g>
<g>
</g>
<g>
</g>
<g>
</g>
<g>
</g>
<g>
</g>
<g>
</g>
<g>
</g>
<g>
</g>
<g>
</g>
<g>
</g>
<g>
</g>
</svg>
