<?xml version="1.0" encoding="iso-8859-1"?>
<!-- Generator: Adobe Illustrator 19.0.0, SVG Export Plug-In . SVG Version: 6.00 Build 0)  -->
<svg version="1.1" id="Layer_1" xmlns="http://www.w3.org/2000/svg" xmlns:xlink="http://www.w3.org/1999/xlink" x="0px" y="0px"
	 viewBox="0 0 512 512" style="enable-background:new 0 0 512 512;" xml:space="preserve">
<g>
	<g>
		<path d="M274.475,0h-36.951c-19.595,0-35.479,15.884-35.479,35.479v54.9h107.911v-54.9C309.955,15.884,294.071,0,274.475,0z"/>
	</g>
</g>
<g>
	<g>
		<path d="M356.818,145.093c-13.845-13.663-32.513-21.323-51.965-21.323h-97.707c-19.452,0-38.12,7.661-51.965,21.323
			c-14.087,13.901-22.016,32.867-22.016,52.657v52.685h245.669V197.75C378.834,177.959,370.905,158.994,356.818,145.093z"/>
	</g>
</g>
<g>
	<g>
		<rect x="133.165" y="422.957" width="245.671" height="89.043"/>
	</g>
</g>
<g>
	<g>
		<rect x="133.165" y="283.826" width="245.671" height="105.739"/>
	</g>
</g>
<g>
</g>
<g>
</g>
<g>
</g>
<g>
</g>
<g>
</g>
<g>
</g>
<g>
</g>
<g>
</g>
<g>
</g>
<g>
</g>
<g>
</g>
<g>
</g>
<g>
</g>
<g>
</g>
<g>
</g>
</svg>
